<?xml version="1.0" encoding="UTF-8"?>
<svg width="24px" height="24px" viewBox="0 0 24 24" version="1.1" xmlns="http://www.w3.org/2000/svg" xmlns:xlink="http://www.w3.org/1999/xlink">
    <!-- Generator: sketchtool 52.6 (67491) - http://www.bohemiancoding.com/sketch -->
    <title>7B0C5830-0113-45A1-8ABB-FD546B0D6FC4</title>
    <desc>Created with sketchtool.</desc>
    <g id="Symbols" stroke="none" stroke-width="1" fill="none" fill-rule="evenodd">
        <g id="icon/producto-planchado" fill="#202945">
            <g id="plancha" transform="translate(1.000000, 3.000000)">
                <path d="M16.0380995,17.9237755 C15.241434,17.528112 15.0079466,16.902145 14.7619787,16.237976 L14.7125771,16.1059063 C14.4608891,15.4406458 13.8020281,14.70171 12.737034,14.670057 L4.94614523,1.07614968 C6.46979389,1.01720946 10.2258739,1.11326019 13.2929318,3.15597547 C17.275739,5.80992268 19.6480548,9.03198815 19.6953763,9.09420283 C19.7229372,9.12585591 22.4083029,12.2775206 20.377118,14.9685783 L18.2278894,17.3851274 C18.2169691,17.3960422 17.1654955,18.4820704 16.0380995,17.9237755 M11.5638766,15.7206118 L3.27429184,1.25733629 C3.21396991,1.15200793 3.24777099,1.00847757 3.34865421,0.944625665 C3.44953744,0.880773758 3.5863018,0.91624704 3.64714375,1.02212114 L11.9362085,15.484851 C11.9970504,15.5912708 11.9627293,15.7342554 11.8618461,15.7981073 C11.7609629,15.8619592 11.6247185,15.8259402 11.5638766,15.7206118 M21.0349391,15.5628922 L18.8529494,18.0187348 C18.7827471,18.0929558 17.3412611,19.5784677 15.6668076,18.7489386 C14.5560521,18.1982841 14.2216815,17.2950798 13.9512728,16.5692419 L13.9039513,16.4404466 C13.831149,16.2467079 13.5519001,15.669312 12.8311571,15.5923623 C12.8337571,15.9825684 12.6496713,16.3656798 12.3101004,16.5801567 C11.7978841,16.9032365 11.0489116,16.728053 10.7405418,16.1904964 L2.45095702,1.72776658 C2.14362721,1.19020992 2.38870356,0.486201717 2.9003999,0.16257624 C3.28833229,-0.0819165326 3.76726758,-0.0398943374 4.15571999,0.216604776 C4.37464698,0.189863379 9.57377302,-0.401721811 13.7583467,2.38593239 C17.8789583,5.13156439 20.2627144,8.37382234 20.3620376,8.51025804 C20.3698378,8.51789843 23.5434992,12.2436845 21.0349391,15.5628922 Z M17.3051199,14.0241704 C16.9130274,13.8653592 16.5796968,13.4991658 16.2874474,12.9064891 L16.2260855,12.7804225 C14.6088338,9.45630317 13.0503441,7.24986505 11.7175415,6.39905203 C11.1860845,6.0606915 11.1013218,5.49366473 11.2448464,5.21533591 C11.3914911,4.92936668 11.734182,5.04615564 11.9255481,5.14111489 C15.2957758,6.81108784 17.5141666,9.73026605 17.7819752,10.1979676 C17.8152562,10.2563621 17.8662179,10.3360406 17.9286199,10.43482 C18.0123425,10.5657983 18.1257061,10.7437104 18.2447899,10.9516384 C18.5744805,11.5273971 18.9483724,12.3307305 18.8552894,12.9976282 C18.7960076,13.4249448 18.5838408,13.7791319 18.2733909,13.9690503 C17.9899818,14.1431423 17.6462508,14.1622433 17.3051199,14.0241704 Z M19.7159169,13.1296979 C19.8906425,11.8750352 19.0534158,10.5603408 18.6514429,9.92782495 C18.5984012,9.84487204 18.5552399,9.77719993 18.527159,9.72808308 C18.2213892,9.19380089 15.9073153,6.10544241 12.29684,4.31595178 C11.4273722,3.88536072 10.7575908,4.24009353 10.4793819,4.78256187 C10.2375742,5.25408365 10.2469345,5.89806015 10.5657047,6.4547178 C10.7222297,6.72758919 10.9525971,6.97972237 11.2661671,7.17891849 C11.9479088,7.61442124 13.3987552,8.97604951 15.4517807,13.1946413 L15.5157428,13.3261653 C15.9052352,14.1131264 16.4018511,14.635948 16.99259,14.8755291 C17.5848889,15.115656 18.1953884,15.0736338 18.7117649,14.7576487 C19.2515421,14.4263828 19.6171138,13.8331604 19.7159169,13.1296979 Z" id="Combined-Shape" stroke="#202945" stroke-width="0.578947368"></path>
                <path d="M6.93699828,14.7766369 C6.88614854,14.526644 6.65834169,14.370675 6.42951785,14.4259832 C5.75372477,14.5902484 5.23302341,14.5200071 4.88216019,14.2180245 C4.33654245,13.7456929 4.32128753,12.8259183 4.32077903,12.8187282 C4.32077903,12.6555691 4.23738545,12.5084494 4.1092441,12.4249341 C3.98110275,12.3419719 3.81634959,12.3408657 3.68515725,12.4177441 C3.60786564,12.4630968 2.90308821,12.817622 2.07271192,11.3148994 C1.16453552,9.67335336 1.78693637,8.7934006 1.80931025,8.76187495 C1.90490777,8.63964393 1.93592611,8.47316638 1.89117834,8.32051587 C1.84592207,8.16786536 1.73201865,8.05171823 1.58862237,8.01300252 C1.3069148,7.93667726 1.11571977,7.79066373 1.00079935,7.54343628 C0.684005455,6.89411852 0.950966602,5.75532359 1.08012495,5.37148499 C1.16097604,5.13255376 1.04859811,4.86652153 0.827910226,4.77858156 C0.608239339,4.69064159 0.363652078,4.81231953 0.282800987,5.05180385 C0.221272799,5.23155536 -0.299937061,6.8437881 0.24873166,7.97428681 C0.398229902,8.28014091 0.615358302,8.52570913 0.889946912,8.69771749 C0.681462968,9.29062092 0.549253637,10.3547498 1.34403511,11.7916557 C2.1367826,13.224137 2.98749879,13.4426042 3.53464201,13.3928269 C3.62312057,13.8518845 3.83567249,14.4912468 4.3477294,14.9364775 C4.90961905,15.4259547 5.67236519,15.557035 6.61461091,15.3286123 C6.84394325,15.2727511 6.98835652,15.0255236 6.93699828,14.7766369" id="Fill-6"></path>
                <path d="M2.70997889,7.03200447 L4.19883087,7.12442106 C4.42735234,7.13818523 4.62026007,6.90484973 4.63114204,6.60269337 C4.64152938,6.30053701 4.46543925,6.04360578 4.23741242,6.02984161 L2.7480658,5.93808046 C2.52003897,5.92431628 2.32713124,6.15699635 2.31624926,6.45980815 C2.31229218,6.57188784 2.33405613,6.67741316 2.37461622,6.76720801 C2.44337051,6.91861391 2.56653468,7.02348379 2.70997889,7.03200447" id="Fill-8"></path>
                <path d="M3.54051643,11.6406416 C3.56026391,11.6741523 3.58396088,11.7053519 3.61217157,11.7342405 C3.79610525,11.922016 4.09457432,11.922016 4.27907221,11.7336627 L5.65180423,10.3239017 C5.83630213,10.1349706 5.83460949,9.82932976 5.65124002,9.64097644 C5.46730634,9.45262312 5.16883727,9.45320089 4.9849036,9.64155421 L3.61160736,11.0507375 C3.45532015,11.2113578 3.43218739,11.4557549 3.54051643,11.6406416" id="Fill-10"></path>
                <path d="M5.87126749,13.9884262 C5.90200654,14.0368168 5.94230884,14.0819813 5.99012514,14.1200485 C6.22852353,14.3142559 6.58987811,14.2878024 6.79480509,14.0606894 L7.96767053,12.7651135 C8.17259751,12.5386458 8.145957,12.1992668 7.90550934,12.0044142 C7.66574477,11.8108521 7.30575637,11.8373056 7.1001463,12.0644185 L5.92659777,13.3593493 C5.76265619,13.5412977 5.74762821,13.7948641 5.87126749,13.9884262" id="Fill-12"></path>
            </g>
        </g>
    </g>
</svg>